{
  "env": {
    "browser": true,
    "node": true,
    "es6": true
  },
  "extends": [
    "plugin:vue/recommended",
    "eslint:recommended"
  ],
  "parserOptions": {
    "parser": "babel-eslint",
    "sourceType": "module",
    "allowImportExportEverywhere": true
  },
  "plugins": [
    "vue"
  ],
  "globals": {
    "Atomics": "readonly",
    "SharedArrayBuffer": "readonly"
  },
  "ignorePatterns": [ "node_modules/", "test/", "dist/", "public-dist", "webpack*.js" ],
  "rules": {
    "array-bracket-newline": [ "error", "consistent" ],
    "array-bracket-spacing": [ "error", "always", { "objectsInArrays": true, "arraysInArrays": true } ],
    "arrow-body-style": [ "error", "as-needed" ],
    "arrow-parens": [ "error", "always" ],
    "brace-style": [ "error", "1tbs" ],
    "eqeqeq": [ "error" ],
    "func-style": [ "error", "declaration", { "allowArrowFunctions": true } ],
    "function-paren-newline": [ "error", "multiline" ],
    "implicit-arrow-linebreak": [ "error", "beside" ],
    "indent": [ "error", 2 ],
    "keyword-spacing": [ "error", { "before": true } ],
    "linebreak-style": [ "error", "unix" ],
    "max-len": [ "error", { "code": 180, "tabWidth": 2, "ignoreUrls": true, "ignoreStrings": true, "ignoreTemplateLiterals": true, "ignoreRegExpLiterals": true } ],
    "max-nested-callbacks": [ "error", { "max": 2 } ],
    "no-confusing-arrow": [ "error" ],
    "no-debugger": [ "warn" ],
    "no-else-return": [ "error" ],
    "no-empty-function": [ "error" ],
    "no-lonely-if": [ "error" ],
    "no-extra-semi": [ "error" ],
    "no-loop-func": [ "error" ],
    "no-multi-assign": [ "error" ],
    "no-param-reassign": [ "error" ],
    "no-sequences": [ "error" ],
    "no-useless-concat": [ "error" ],
    "no-undef": [ "error" ],
    "no-var": [ "error" ],
    "object-curly-spacing": [ "error", "always" ],
    "object-shorthand": [ "error", "methods" ],
    "one-var": [ "error", "never" ],
    "operator-linebreak": [ "error", "before", { "overrides": { "=": "none" } } ],
    "padded-blocks": [ "error", "never" ],
    "padding-line-between-statements": [ "error",
      { "blankLine": "always", "prev": "multiline-block-like", "next": "*" },
      { "blankLine": "always", "prev": "*", "next": "multiline-block-like" }
    ],
    "prefer-arrow-callback": [ "error" ],
    "prefer-const": [ "error", { "destructuring": "any", "ignoreReadBeforeAssign": false }],
    "prefer-template": [ "error" ],
    "prefer-object-spread": [ "error" ],
    "quotes": [ "error", "single" ],
    "semi": [ "error", "always" ],
    "semi-spacing": [ "error", { "before": false, "after": true } ],
    "space-before-blocks": [ "error", "always" ],
    "space-before-function-paren": [ "error", { "anonymous": "always", "named": "never", "asyncArrow": "always" } ],
    "space-in-parens": [ "error", "never" ],
    "switch-colon-spacing": [ "error", { "after": true, "before": false } ],
    "camelcase": [ "error", { "properties": "never" } ],

    "vue/multiline-html-element-content-newline": [ "error", {
      "ignoreWhenEmpty": false,
      "ignores": [],
      "allowEmptyLines": false
    }],
    "vue/require-default-prop": [ "off" ],
    "vue/no-multiple-template-root": [ "off" ],
    "vue/no-v-for-template-key": [ "off" ]
  }
}
